{
    "labels": [
      "2015-01",
      "2015-02",
      "2015-03",
      "2015-04",
      "2015-05"
    ],
    "datasets": [
      {
        "label": "Inprogress Tickets",
        "data": [
          12,
          19,
          3,
          5,
          2
        ],
        "backgroundColor": "green",
        "borderWidth": 1
      },
      {
        "label": "Hold Tickets",
        "data": [
          121,
          119,
          143,
          65,
          72
        ],
        "backgroundColor": "red",
        "borderWidth": 1
      },
      {
        "label": "Completed Tickets",
        "data": [
          1,
          19,
          78,
          6,
          7
        ],
        "backgroundColor": "blue",
        "borderWidth": 1
      },
      {
        "label": "Open Tickets",
        "data": [
          67,
          45,
          1,
          34,
          39
        ],
        "backgroundColor": "orange",
        "borderWidth": 1
      }
    ],
    "options": {
      "aspectRatio": 2.5,
      "plugins": {
          "title": {
              "display": false,
              "text": "Chart Title"
          },
          "subtitle": {
              "display": false,
              "text": "Chart Subtitle"
          }
      },
      "scales": {
          "x": {
              "title": {
                  "display": false,
                  "text": "X Axis Label",
                  "color": "black"
              }
          },
          "y": {
              "title": {
                  "display": false,
                  "text": "Y Axis Label",
                  "color": "black"
              }
          }
      }
  }
  }